*“I was studying hard” is a correct present continuous sentence.	#		+	F
*Past continuous is used for something that is appening at the moment of speaking.	#		+	F
*“At nine o’ clock we are usually having dinner” isn’t a correct sentence	#		+	F
*“She’s feeding her cat” is a correct present continuous sentence.	#		+	T
*Present continuous can be used to talk about the past, the present and the future.	#		+	T
*When a sentence describes two facts happening at the same time in the past, you must use past continuous	#		+	T
*Present continuous can be used for something which has been planned.	#		+	T
*“Winter is coming” is a correct past continuous sentence.	#		+	F
----------TRUE_FALSE-----------				
*While Tom was reading, Emily _____ a documentary on TV. 	#	watched#was watching#has watched#	+	was watching
*When my father was working in the garden, an old friend _____ by to see him.	#	was passing#had passed#passed#	+	passed
*When I was on my way home, I _____ an accident. 	#	seen#was seeing#saw#have seen#	+	saw
*They’re always _____	#	argue#arguing#argued#	+	arguing
*While Tom _____ the piano, his mother was doing the washing-up.	#	played#had play#was playing#	+	was playing
*When Jane was doing a language course in Ireland, she _____ Blarney Castle.	#	was visiting#visited#was going#	+	visited
*When I was doing the washing-up, I ______ a plate.	#	broke#have broken#was breaking#	+	broke
*I _____ dinner when I suddenly heard a loud bang.	#	was having#had#ate#have been having#	+	was having
-----------MULTI--------------				
*Why _____(to be) you _____(to try) to call him?	#		+	were#+trying
*While it _____(to rain) outside, I _____(to sit) in the farmer's house. 	#		+	was raining#+was sitting
*Be quiet, the children _____(to sleep)	#		+	are sleeping
*One man was _____(to mow) the grass while his wife _____(to pick) strawberries. 	#		+	mowing#+was picking
*What _____(to be) you _____(to do) yesterday at seven?	#		+	were#+doing
*I _____in London for the next two weeks	#		+	‘m working
*While I was _____(to cycle) past some villages, I _____ (to see) some people in their gardens. 	#		+	cycling#+saw
*I was _____(to read) my favourite book, when the phone _____(to ring)	#		+	reading#+rang
-----------COMPLETE--------------				
*We’re talking about a film making competition	#		+	T
*The film shoud last more than 12 minutes	#		+	F
*The film should have less than three main characters	#		+	F
*This is the first year of the competition	#		+	F
*The film has to be a Horror or a Comedy	#		+	F
*Last year’s films were about the family	#		+	T
*This year the films must talk about waiters	#		+	F
*The director is Mark Matthews	#		+	T
-------------AUDIO------------				
